{
    "prepare_queue": {
        "installed": [],
        "uninstalled": []
    },
    "config_munge": {
        "files": {
            "framework": {
                "parents": {
                    "ImageIO.framework": [
                        {
                            "xml": true,
                            "count": 1
                        }
                    ],
                    "CoreLocation.framework": [
                        {
                            "xml": false,
                            "count": 2
                        }
                    ],
                    "CoreGraphics.framework": [
                        {
                            "xml": false,
                            "count": 2
                        }
                    ],
                    "AssetsLibrary.framework": [
                        {
                            "xml": false,
                            "count": 3
                        }
                    ],
                    "MobileCoreServices.framework": [
                        {
                            "xml": false,
                            "count": 2
                        }
                    ],
                    "AVFoundation.framework": [
                        {
                            "xml": false,
                            "count": 1
                        }
                    ],
                    "SystemConfiguration.framework": [
                        {
                            "xml": true,
                            "count": 1
                        }
                    ]
                }
            },
            "config.xml": {
                "parents": {
                    "/*": [
                        {
                            "xml": "<feature name=\"Camera\"><param name=\"ios-package\" value=\"CDVCamera\" /></feature>",
                            "count": 1
                        },
                        {
                            "xml": "<preference name=\"CameraUsesGeolocation\" value=\"false\" />",
                            "count": 1
                        },
                        {
                            "xml": "<feature name=\"Device\"><param name=\"ios-package\" value=\"CDVDevice\" /></feature>",
                            "count": 1
                        },
                        {
                            "xml": "<preference name=\"AndroidPersistentFileLocation\" value=\"Internal\" />",
                            "count": 1
                        },
                        {
                            "xml": "<feature name=\"File\"><param name=\"ios-package\" value=\"CDVFile\" /><param name=\"onload\" value=\"true\" /></feature>",
                            "count": 1
                        },
                        {
                            "xml": "<feature name=\"FileTransfer\"><param name=\"ios-package\" value=\"CDVFileTransfer\" /></feature>",
                            "count": 1
                        },
                        {
                            "xml": "<feature name=\"NetworkStatus\"><param name=\"ios-package\" value=\"CDVConnection\" /></feature>",
                            "count": 1
                        },
                        {
                            "xml": "<feature name=\"Geolocation\"><param name=\"ios-package\" value=\"CDVLocation\" /></feature>",
                            "count": 1
                        }
                    ]
                }
            },
            "*-Info.plist": {
                "parents": {
                    "NSLocationWhenInUseUsageDescription": [
                        {
                            "xml": "<string />",
                            "count": 2
                        }
                    ]
                }
            }
        }
    },
    "installed_plugins": {
        "cordova-plugin-camera": {
            "PACKAGE_NAME": "io.cordova.maniladarpa"
        },
        "cordova-plugin-device": {
            "PACKAGE_NAME": "io.cordova.maniladarpa"
        },
        "cordova-plugin-file": {
            "PACKAGE_NAME": "io.cordova.maniladarpa"
        },
        "cordova-plugin-file-transfer": {
            "PACKAGE_NAME": "io.cordova.maniladarpa"
        },
        "cordova-plugin-network-information": {
            "PACKAGE_NAME": "io.cordova.maniladarpa"
        },
        "cordova-plugin-whitelist": {
            "PACKAGE_NAME": "io.cordova.maniladarpa"
        },
        "cordova-plugin-geolocation": {
            "PACKAGE_NAME": "io.cordova.maniladarpa"
        }
    },
    "dependent_plugins": {}
}